stm32f3xx_it.c:60:6:NMI_Handler	0	static
stm32f3xx_it.c:73:6:HardFault_Handler	0	static
stm32f3xx_it.c:89:6:MemManage_Handler	0	static
stm32f3xx_it.c:105:6:BusFault_Handler	0	static
stm32f3xx_it.c:121:6:UsageFault_Handler	0	static
stm32f3xx_it.c:137:6:SVC_Handler	0	static
stm32f3xx_it.c:150:6:DebugMon_Handler	0	static
stm32f3xx_it.c:163:6:PendSV_Handler	0	static
stm32f3xx_it.c:176:6:SysTick_Handler	8	static
stm32f3xx_it.c:198:6:DMA1_Channel4_IRQHandler	0	static
stm32f3xx_it.c:212:6:TIM1_UP_TIM16_IRQHandler	0	static
stm32f3xx_it.c:226:6:USART2_IRQHandler	0	static
stm32f3xx_it.c:240:6:USART3_IRQHandler	0	static
stm32f3xx_it.c:254:6:TIM7_IRQHandler	0	static
stm32f3xx_it.c:268:6:DMA2_Channel1_IRQHandler	0	static
stm32f3xx_it.c:282:6:DMA2_Channel5_IRQHandler	0	static
stm32f3xx_it.c:296:6:COMP4_5_6_IRQHandler	0	static
stm32f3xx_it.c:310:6:COMP7_IRQHandler	0	static
