(['C:\\Users\\w_becker\\Google '
  'Drive\\oscilloscope\\testes_arduino\\receive_stuff1_exe\\receive_stuff1.py'],
 ['C:\\Users\\w_becker\\Google '
  'Drive\\oscilloscope\\testes_arduino\\receive_stuff1_exe',
  'C:\\Users\\w_becker\\Google '
  'Drive\\oscilloscope\\testes_arduino\\receive_stuff1_exe'],
 ['codecs'],
 [],
 [],
 [],
 False,
 False,
 '3.7.0 (v3.7.0:1bf9cc5093, Jun 27 2018, 04:06:47) [MSC v.1914 32 bit (Intel)]',
 [('receive_stuff1',
   'C:\\Users\\w_becker\\Google '
   'Drive\\oscilloscope\\testes_arduino\\receive_stuff1_exe\\receive_stuff1.py',
   'PYSOURCE')],
 [('ntpath',
   'c:\\program files (x86)\\python37-32\\lib\\ntpath.py',
   'PYMODULE'),
  ('_strptime',
   'c:\\program files (x86)\\python37-32\\lib\\_strptime.py',
   'PYMODULE'),
  ('datetime',
   'c:\\program files (x86)\\python37-32\\lib\\datetime.py',
   'PYMODULE'),
  ('stringprep',
   'c:\\program files (x86)\\python37-32\\lib\\stringprep.py',
   'PYMODULE'),
  ('_py_abc',
   'c:\\program files (x86)\\python37-32\\lib\\_py_abc.py',
   'PYMODULE'),
  ('fnmatch',
   'c:\\program files (x86)\\python37-32\\lib\\fnmatch.py',
   'PYMODULE'),
  ('struct',
   'c:\\program files (x86)\\python37-32\\lib\\struct.py',
   'PYMODULE'),
  ('_compat_pickle',
   'c:\\program files (x86)\\python37-32\\lib\\_compat_pickle.py',
   'PYMODULE'),
  ('__future__',
   'c:\\program files (x86)\\python37-32\\lib\\__future__.py',
   'PYMODULE'),
  ('difflib',
   'c:\\program files (x86)\\python37-32\\lib\\difflib.py',
   'PYMODULE'),
  ('ast', 'c:\\program files (x86)\\python37-32\\lib\\ast.py', 'PYMODULE'),
  ('inspect',
   'c:\\program files (x86)\\python37-32\\lib\\inspect.py',
   'PYMODULE'),
  ('cmd', 'c:\\program files (x86)\\python37-32\\lib\\cmd.py', 'PYMODULE'),
  ('bdb', 'c:\\program files (x86)\\python37-32\\lib\\bdb.py', 'PYMODULE'),
  ('opcode',
   'c:\\program files (x86)\\python37-32\\lib\\opcode.py',
   'PYMODULE'),
  ('dis', 'c:\\program files (x86)\\python37-32\\lib\\dis.py', 'PYMODULE'),
  ('codeop',
   'c:\\program files (x86)\\python37-32\\lib\\codeop.py',
   'PYMODULE'),
  ('code', 'c:\\program files (x86)\\python37-32\\lib\\code.py', 'PYMODULE'),
  ('glob', 'c:\\program files (x86)\\python37-32\\lib\\glob.py', 'PYMODULE'),
  ('shlex', 'c:\\program files (x86)\\python37-32\\lib\\shlex.py', 'PYMODULE'),
  ('runpy', 'c:\\program files (x86)\\python37-32\\lib\\runpy.py', 'PYMODULE'),
  ('importlib._bootstrap',
   'c:\\program files (x86)\\python37-32\\lib\\importlib\\_bootstrap.py',
   'PYMODULE'),
  ('importlib._bootstrap_external',
   'c:\\program files '
   '(x86)\\python37-32\\lib\\importlib\\_bootstrap_external.py',
   'PYMODULE'),
  ('importlib.machinery',
   'c:\\program files (x86)\\python37-32\\lib\\importlib\\machinery.py',
   'PYMODULE'),
  ('importlib.util',
   'c:\\program files (x86)\\python37-32\\lib\\importlib\\util.py',
   'PYMODULE'),
  ('importlib.abc',
   'c:\\program files (x86)\\python37-32\\lib\\importlib\\abc.py',
   'PYMODULE'),
  ('importlib',
   'c:\\program files (x86)\\python37-32\\lib\\importlib\\__init__.py',
   'PYMODULE'),
  ('pkgutil',
   'c:\\program files (x86)\\python37-32\\lib\\pkgutil.py',
   'PYMODULE'),
  ('xml',
   'c:\\program files (x86)\\python37-32\\lib\\xml\\__init__.py',
   'PYMODULE'),
  ('xml.sax.expatreader',
   'c:\\program files (x86)\\python37-32\\lib\\xml\\sax\\expatreader.py',
   'PYMODULE'),
  ('xml.sax.saxutils',
   'c:\\program files (x86)\\python37-32\\lib\\xml\\sax\\saxutils.py',
   'PYMODULE'),
  ('urllib.request',
   'c:\\program files (x86)\\python37-32\\lib\\urllib\\request.py',
   'PYMODULE'),
  ('getpass',
   'c:\\program files (x86)\\python37-32\\lib\\getpass.py',
   'PYMODULE'),
  ('nturl2path',
   'c:\\program files (x86)\\python37-32\\lib\\nturl2path.py',
   'PYMODULE'),
  ('ftplib',
   'c:\\program files (x86)\\python37-32\\lib\\ftplib.py',
   'PYMODULE'),
  ('netrc', 'c:\\program files (x86)\\python37-32\\lib\\netrc.py', 'PYMODULE'),
  ('http.cookiejar',
   'c:\\program files (x86)\\python37-32\\lib\\http\\cookiejar.py',
   'PYMODULE'),
  ('urllib.response',
   'c:\\program files (x86)\\python37-32\\lib\\urllib\\response.py',
   'PYMODULE'),
  ('urllib.error',
   'c:\\program files (x86)\\python37-32\\lib\\urllib\\error.py',
   'PYMODULE'),
  ('xml.sax',
   'c:\\program files (x86)\\python37-32\\lib\\xml\\sax\\__init__.py',
   'PYMODULE'),
  ('xml.sax.handler',
   'c:\\program files (x86)\\python37-32\\lib\\xml\\sax\\handler.py',
   'PYMODULE'),
  ('xml.sax._exceptions',
   'c:\\program files (x86)\\python37-32\\lib\\xml\\sax\\_exceptions.py',
   'PYMODULE'),
  ('xml.sax.xmlreader',
   'c:\\program files (x86)\\python37-32\\lib\\xml\\sax\\xmlreader.py',
   'PYMODULE'),
  ('xml.parsers',
   'c:\\program files (x86)\\python37-32\\lib\\xml\\parsers\\__init__.py',
   'PYMODULE'),
  ('xml.parsers.expat',
   'c:\\program files (x86)\\python37-32\\lib\\xml\\parsers\\expat.py',
   'PYMODULE'),
  ('plistlib',
   'c:\\program files (x86)\\python37-32\\lib\\plistlib.py',
   'PYMODULE'),
  ('platform',
   'c:\\program files (x86)\\python37-32\\lib\\platform.py',
   'PYMODULE'),
  ('token', 'c:\\program files (x86)\\python37-32\\lib\\token.py', 'PYMODULE'),
  ('tokenize',
   'c:\\program files (x86)\\python37-32\\lib\\tokenize.py',
   'PYMODULE'),
  ('urllib.parse',
   'c:\\program files (x86)\\python37-32\\lib\\urllib\\parse.py',
   'PYMODULE'),
  ('tempfile',
   'c:\\program files (x86)\\python37-32\\lib\\tempfile.py',
   'PYMODULE'),
  ('tty', 'c:\\program files (x86)\\python37-32\\lib\\tty.py', 'PYMODULE'),
  ('pydoc_data',
   'c:\\program files (x86)\\python37-32\\lib\\pydoc_data\\__init__.py',
   'PYMODULE'),
  ('pydoc_data.topics',
   'c:\\program files (x86)\\python37-32\\lib\\pydoc_data\\topics.py',
   'PYMODULE'),
  ('html.entities',
   'c:\\program files (x86)\\python37-32\\lib\\html\\entities.py',
   'PYMODULE'),
  ('html',
   'c:\\program files (x86)\\python37-32\\lib\\html\\__init__.py',
   'PYMODULE'),
  ('ssl', 'c:\\program files (x86)\\python37-32\\lib\\ssl.py', 'PYMODULE'),
  ('http.client',
   'c:\\program files (x86)\\python37-32\\lib\\http\\client.py',
   'PYMODULE'),
  ('mimetypes',
   'c:\\program files (x86)\\python37-32\\lib\\mimetypes.py',
   'PYMODULE'),
  ('socketserver',
   'c:\\program files (x86)\\python37-32\\lib\\socketserver.py',
   'PYMODULE'),
  ('http',
   'c:\\program files (x86)\\python37-32\\lib\\http\\__init__.py',
   'PYMODULE'),
  ('http.server',
   'c:\\program files (x86)\\python37-32\\lib\\http\\server.py',
   'PYMODULE'),
  ('optparse',
   'c:\\program files (x86)\\python37-32\\lib\\optparse.py',
   'PYMODULE'),
  ('uu', 'c:\\program files (x86)\\python37-32\\lib\\uu.py', 'PYMODULE'),
  ('quopri',
   'c:\\program files (x86)\\python37-32\\lib\\quopri.py',
   'PYMODULE'),
  ('email.feedparser',
   'c:\\program files (x86)\\python37-32\\lib\\email\\feedparser.py',
   'PYMODULE'),
  ('email.parser',
   'c:\\program files (x86)\\python37-32\\lib\\email\\parser.py',
   'PYMODULE'),
  ('email',
   'c:\\program files (x86)\\python37-32\\lib\\email\\__init__.py',
   'PYMODULE'),
  ('calendar',
   'c:\\program files (x86)\\python37-32\\lib\\calendar.py',
   'PYMODULE'),
  ('email._parseaddr',
   'c:\\program files (x86)\\python37-32\\lib\\email\\_parseaddr.py',
   'PYMODULE'),
  ('email.utils',
   'c:\\program files (x86)\\python37-32\\lib\\email\\utils.py',
   'PYMODULE'),
  ('email.errors',
   'c:\\program files (x86)\\python37-32\\lib\\email\\errors.py',
   'PYMODULE'),
  ('email.header',
   'c:\\program files (x86)\\python37-32\\lib\\email\\header.py',
   'PYMODULE'),
  ('email._policybase',
   'c:\\program files (x86)\\python37-32\\lib\\email\\_policybase.py',
   'PYMODULE'),
  ('email.base64mime',
   'c:\\program files (x86)\\python37-32\\lib\\email\\base64mime.py',
   'PYMODULE'),
  ('email.encoders',
   'c:\\program files (x86)\\python37-32\\lib\\email\\encoders.py',
   'PYMODULE'),
  ('email.charset',
   'c:\\program files (x86)\\python37-32\\lib\\email\\charset.py',
   'PYMODULE'),
  ('base64',
   'c:\\program files (x86)\\python37-32\\lib\\base64.py',
   'PYMODULE'),
  ('email._encoded_words',
   'c:\\program files (x86)\\python37-32\\lib\\email\\_encoded_words.py',
   'PYMODULE'),
  ('hashlib',
   'c:\\program files (x86)\\python37-32\\lib\\hashlib.py',
   'PYMODULE'),
  ('bisect',
   'c:\\program files (x86)\\python37-32\\lib\\bisect.py',
   'PYMODULE'),
  ('random',
   'c:\\program files (x86)\\python37-32\\lib\\random.py',
   'PYMODULE'),
  ('email.generator',
   'c:\\program files (x86)\\python37-32\\lib\\email\\generator.py',
   'PYMODULE'),
  ('email.iterators',
   'c:\\program files (x86)\\python37-32\\lib\\email\\iterators.py',
   'PYMODULE'),
  ('urllib',
   'c:\\program files (x86)\\python37-32\\lib\\urllib\\__init__.py',
   'PYMODULE'),
  ('email._header_value_parser',
   'c:\\program files (x86)\\python37-32\\lib\\email\\_header_value_parser.py',
   'PYMODULE'),
  ('email.headerregistry',
   'c:\\program files (x86)\\python37-32\\lib\\email\\headerregistry.py',
   'PYMODULE'),
  ('email.quoprimime',
   'c:\\program files (x86)\\python37-32\\lib\\email\\quoprimime.py',
   'PYMODULE'),
  ('email.contentmanager',
   'c:\\program files (x86)\\python37-32\\lib\\email\\contentmanager.py',
   'PYMODULE'),
  ('email.policy',
   'c:\\program files (x86)\\python37-32\\lib\\email\\policy.py',
   'PYMODULE'),
  ('email.message',
   'c:\\program files (x86)\\python37-32\\lib\\email\\message.py',
   'PYMODULE'),
  ('bz2', 'c:\\program files (x86)\\python37-32\\lib\\bz2.py', 'PYMODULE'),
  ('lzma', 'c:\\program files (x86)\\python37-32\\lib\\lzma.py', 'PYMODULE'),
  ('_compression',
   'c:\\program files (x86)\\python37-32\\lib\\_compression.py',
   'PYMODULE'),
  ('gzip', 'c:\\program files (x86)\\python37-32\\lib\\gzip.py', 'PYMODULE'),
  ('tarfile',
   'c:\\program files (x86)\\python37-32\\lib\\tarfile.py',
   'PYMODULE'),
  ('py_compile',
   'c:\\program files (x86)\\python37-32\\lib\\py_compile.py',
   'PYMODULE'),
  ('zipfile',
   'c:\\program files (x86)\\python37-32\\lib\\zipfile.py',
   'PYMODULE'),
  ('shutil',
   'c:\\program files (x86)\\python37-32\\lib\\shutil.py',
   'PYMODULE'),
  ('webbrowser',
   'c:\\program files (x86)\\python37-32\\lib\\webbrowser.py',
   'PYMODULE'),
  ('pydoc', 'c:\\program files (x86)\\python37-32\\lib\\pydoc.py', 'PYMODULE'),
  ('getopt',
   'c:\\program files (x86)\\python37-32\\lib\\getopt.py',
   'PYMODULE'),
  ('pdb', 'c:\\program files (x86)\\python37-32\\lib\\pdb.py', 'PYMODULE'),
  ('unittest.util',
   'c:\\program files (x86)\\python37-32\\lib\\unittest\\util.py',
   'PYMODULE'),
  ('unittest.result',
   'c:\\program files (x86)\\python37-32\\lib\\unittest\\result.py',
   'PYMODULE'),
  ('string',
   'c:\\program files (x86)\\python37-32\\lib\\string.py',
   'PYMODULE'),
  ('logging',
   'c:\\program files (x86)\\python37-32\\lib\\logging\\__init__.py',
   'PYMODULE'),
  ('unittest.case',
   'c:\\program files (x86)\\python37-32\\lib\\unittest\\case.py',
   'PYMODULE'),
  ('unittest.suite',
   'c:\\program files (x86)\\python37-32\\lib\\unittest\\suite.py',
   'PYMODULE'),
  ('unittest.loader',
   'c:\\program files (x86)\\python37-32\\lib\\unittest\\loader.py',
   'PYMODULE'),
  ('unittest.runner',
   'c:\\program files (x86)\\python37-32\\lib\\unittest\\runner.py',
   'PYMODULE'),
  ('unittest.main',
   'c:\\program files (x86)\\python37-32\\lib\\unittest\\main.py',
   'PYMODULE'),
  ('unittest.signals',
   'c:\\program files (x86)\\python37-32\\lib\\unittest\\signals.py',
   'PYMODULE'),
  ('unittest',
   'c:\\program files (x86)\\python37-32\\lib\\unittest\\__init__.py',
   'PYMODULE'),
  ('doctest',
   'c:\\program files (x86)\\python37-32\\lib\\doctest.py',
   'PYMODULE'),
  ('stat', 'c:\\program files (x86)\\python37-32\\lib\\stat.py', 'PYMODULE'),
  ('genericpath',
   'c:\\program files (x86)\\python37-32\\lib\\genericpath.py',
   'PYMODULE'),
  ('posixpath',
   'c:\\program files (x86)\\python37-32\\lib\\posixpath.py',
   'PYMODULE'),
  ('signal',
   'c:\\program files (x86)\\python37-32\\lib\\signal.py',
   'PYMODULE'),
  ('_threading_local',
   'c:\\program files (x86)\\python37-32\\lib\\_threading_local.py',
   'PYMODULE'),
  ('selectors',
   'c:\\program files (x86)\\python37-32\\lib\\selectors.py',
   'PYMODULE'),
  ('subprocess',
   'c:\\program files (x86)\\python37-32\\lib\\subprocess.py',
   'PYMODULE'),
  ('os', 'c:\\program files (x86)\\python37-32\\lib\\os.py', 'PYMODULE'),
  ('gettext',
   'c:\\program files (x86)\\python37-32\\lib\\gettext.py',
   'PYMODULE'),
  ('copy', 'c:\\program files (x86)\\python37-32\\lib\\copy.py', 'PYMODULE'),
  ('textwrap',
   'c:\\program files (x86)\\python37-32\\lib\\textwrap.py',
   'PYMODULE'),
  ('argparse',
   'c:\\program files (x86)\\python37-32\\lib\\argparse.py',
   'PYMODULE'),
  ('pprint',
   'c:\\program files (x86)\\python37-32\\lib\\pprint.py',
   'PYMODULE'),
  ('pickle',
   'c:\\program files (x86)\\python37-32\\lib\\pickle.py',
   'PYMODULE'),
  ('tracemalloc',
   'c:\\program files (x86)\\python37-32\\lib\\tracemalloc.py',
   'PYMODULE'),
  ('contextlib',
   'c:\\program files (x86)\\python37-32\\lib\\contextlib.py',
   'PYMODULE'),
  ('typing',
   'c:\\program files (x86)\\python37-32\\lib\\typing.py',
   'PYMODULE'),
  ('threading',
   'c:\\program files (x86)\\python37-32\\lib\\threading.py',
   'PYMODULE'),
  ('socket',
   'c:\\program files (x86)\\python37-32\\lib\\socket.py',
   'PYMODULE')],
 [('api-ms-win-crt-runtime-l1-1-0.dll',
   'C:\\Windows\\system32\\api-ms-win-crt-runtime-l1-1-0.dll',
   'BINARY'),
  ('api-ms-win-crt-math-l1-1-0.dll',
   'C:\\Windows\\system32\\api-ms-win-crt-math-l1-1-0.dll',
   'BINARY'),
  ('python37.dll',
   'c:\\program files (x86)\\python37-32\\python37.dll',
   'BINARY'),
  ('VCRUNTIME140.dll',
   'c:\\program files (x86)\\python37-32\\VCRUNTIME140.dll',
   'BINARY'),
  ('api-ms-win-crt-locale-l1-1-0.dll',
   'C:\\Windows\\system32\\api-ms-win-crt-locale-l1-1-0.dll',
   'BINARY'),
  ('api-ms-win-crt-heap-l1-1-0.dll',
   'C:\\Windows\\system32\\api-ms-win-crt-heap-l1-1-0.dll',
   'BINARY'),
  ('api-ms-win-crt-stdio-l1-1-0.dll',
   'C:\\Windows\\system32\\api-ms-win-crt-stdio-l1-1-0.dll',
   'BINARY'),
  ('ucrtbase.dll', 'C:\\Windows\\system32\\ucrtbase.dll', 'BINARY'),
  ('api-ms-win-crt-string-l1-1-0.dll',
   'C:\\Windows\\system32\\api-ms-win-crt-string-l1-1-0.dll',
   'BINARY'),
  ('api-ms-win-crt-conio-l1-1-0.dll',
   'C:\\Windows\\system32\\api-ms-win-crt-conio-l1-1-0.dll',
   'BINARY'),
  ('api-ms-win-crt-process-l1-1-0.dll',
   'C:\\Windows\\system32\\api-ms-win-crt-process-l1-1-0.dll',
   'BINARY'),
  ('api-ms-win-crt-convert-l1-1-0.dll',
   'C:\\Windows\\system32\\api-ms-win-crt-convert-l1-1-0.dll',
   'BINARY'),
  ('api-ms-win-crt-environment-l1-1-0.dll',
   'C:\\Windows\\system32\\api-ms-win-crt-environment-l1-1-0.dll',
   'BINARY'),
  ('api-ms-win-crt-filesystem-l1-1-0.dll',
   'C:\\Windows\\system32\\api-ms-win-crt-filesystem-l1-1-0.dll',
   'BINARY'),
  ('api-ms-win-crt-time-l1-1-0.dll',
   'C:\\Windows\\system32\\api-ms-win-crt-time-l1-1-0.dll',
   'BINARY'),
  ('api-ms-win-core-heap-l1-1-0.dll',
   'C:\\Windows\\system32\\api-ms-win-core-heap-l1-1-0.dll',
   'BINARY'),
  ('api-ms-win-core-datetime-l1-1-0.dll',
   'C:\\Windows\\system32\\api-ms-win-core-datetime-l1-1-0.dll',
   'BINARY'),
  ('api-ms-win-core-processthreads-l1-1-0.dll',
   'C:\\Windows\\system32\\api-ms-win-core-processthreads-l1-1-0.dll',
   'BINARY'),
  ('api-ms-win-core-file-l1-1-0.dll',
   'C:\\Windows\\system32\\api-ms-win-core-file-l1-1-0.dll',
   'BINARY'),
  ('api-ms-win-core-memory-l1-1-0.dll',
   'C:\\Windows\\system32\\api-ms-win-core-memory-l1-1-0.dll',
   'BINARY'),
  ('api-ms-win-core-sysinfo-l1-1-0.dll',
   'C:\\Windows\\system32\\api-ms-win-core-sysinfo-l1-1-0.dll',
   'BINARY'),
  ('api-ms-win-core-processenvironment-l1-1-0.dll',
   'C:\\Windows\\system32\\api-ms-win-core-processenvironment-l1-1-0.dll',
   'BINARY'),
  ('api-ms-win-core-rtlsupport-l1-1-0.dll',
   'C:\\Windows\\system32\\api-ms-win-core-rtlsupport-l1-1-0.dll',
   'BINARY'),
  ('api-ms-win-core-namedpipe-l1-1-0.dll',
   'C:\\Windows\\system32\\api-ms-win-core-namedpipe-l1-1-0.dll',
   'BINARY'),
  ('api-ms-win-core-processthreads-l1-1-1.dll',
   'C:\\Windows\\system32\\api-ms-win-core-processthreads-l1-1-1.dll',
   'BINARY'),
  ('api-ms-win-core-synch-l1-2-0.dll',
   'C:\\Windows\\system32\\api-ms-win-core-synch-l1-2-0.dll',
   'BINARY'),
  ('api-ms-win-core-handle-l1-1-0.dll',
   'C:\\Windows\\system32\\api-ms-win-core-handle-l1-1-0.dll',
   'BINARY'),
  ('api-ms-win-core-libraryloader-l1-1-0.dll',
   'C:\\Windows\\system32\\api-ms-win-core-libraryloader-l1-1-0.dll',
   'BINARY'),
  ('api-ms-win-core-localization-l1-2-0.dll',
   'C:\\Windows\\system32\\api-ms-win-core-localization-l1-2-0.dll',
   'BINARY'),
  ('api-ms-win-core-timezone-l1-1-0.dll',
   'C:\\Windows\\system32\\api-ms-win-core-timezone-l1-1-0.dll',
   'BINARY'),
  ('api-ms-win-core-util-l1-1-0.dll',
   'C:\\Windows\\system32\\api-ms-win-core-util-l1-1-0.dll',
   'BINARY'),
  ('api-ms-win-core-file-l1-2-0.dll',
   'C:\\Windows\\system32\\api-ms-win-core-file-l1-2-0.dll',
   'BINARY'),
  ('api-ms-win-core-interlocked-l1-1-0.dll',
   'C:\\Windows\\system32\\api-ms-win-core-interlocked-l1-1-0.dll',
   'BINARY'),
  ('api-ms-win-core-synch-l1-1-0.dll',
   'C:\\Windows\\system32\\api-ms-win-core-synch-l1-1-0.dll',
   'BINARY'),
  ('api-ms-win-core-console-l1-1-0.dll',
   'C:\\Windows\\system32\\api-ms-win-core-console-l1-1-0.dll',
   'BINARY'),
  ('api-ms-win-core-file-l2-1-0.dll',
   'C:\\Windows\\system32\\api-ms-win-core-file-l2-1-0.dll',
   'BINARY'),
  ('api-ms-win-core-string-l1-1-0.dll',
   'C:\\Windows\\system32\\api-ms-win-core-string-l1-1-0.dll',
   'BINARY'),
  ('api-ms-win-core-debug-l1-1-0.dll',
   'C:\\Windows\\system32\\api-ms-win-core-debug-l1-1-0.dll',
   'BINARY'),
  ('api-ms-win-core-errorhandling-l1-1-0.dll',
   'C:\\Windows\\system32\\api-ms-win-core-errorhandling-l1-1-0.dll',
   'BINARY'),
  ('api-ms-win-core-profile-l1-1-0.dll',
   'C:\\Windows\\system32\\api-ms-win-core-profile-l1-1-0.dll',
   'BINARY'),
  ('_ssl', 'c:\\program files (x86)\\python37-32\\DLLs\\_ssl.pyd', 'EXTENSION'),
  ('unicodedata',
   'c:\\program files (x86)\\python37-32\\DLLs\\unicodedata.pyd',
   'EXTENSION'),
  ('pyexpat',
   'c:\\program files (x86)\\python37-32\\DLLs\\pyexpat.pyd',
   'EXTENSION'),
  ('_hashlib',
   'c:\\program files (x86)\\python37-32\\DLLs\\_hashlib.pyd',
   'EXTENSION'),
  ('_bz2', 'c:\\program files (x86)\\python37-32\\DLLs\\_bz2.pyd', 'EXTENSION'),
  ('_lzma',
   'c:\\program files (x86)\\python37-32\\DLLs\\_lzma.pyd',
   'EXTENSION'),
  ('_socket',
   'c:\\program files (x86)\\python37-32\\DLLs\\_socket.pyd',
   'EXTENSION'),
  ('select',
   'c:\\program files (x86)\\python37-32\\DLLs\\select.pyd',
   'EXTENSION'),
  ('libcrypto-1_1.dll',
   'c:\\program files (x86)\\python37-32\\DLLs\\libcrypto-1_1.dll',
   'BINARY'),
  ('libssl-1_1.dll',
   'c:\\program files (x86)\\python37-32\\DLLs\\libssl-1_1.dll',
   'BINARY'),
  ('api-ms-win-crt-utility-l1-1-0.dll',
   'C:\\Windows\\system32\\api-ms-win-crt-utility-l1-1-0.dll',
   'BINARY')],
 [],
 [],
 [('base_library.zip',
   'C:\\Users\\w_becker\\Google '
   'Drive\\oscilloscope\\testes_arduino\\receive_stuff1_exe\\build\\receive_stuff1\\base_library.zip',
   'DATA')],
 [])
