('C:\\Users\\w_becker\\Google '
 'Drive\\oscilloscope\\testes_arduino\\receive_stuff1_exe\\build\\receive_stuff1\\PKG-00.pkg',
 {'BINARY': 1,
  'DATA': 1,
  'EXECUTABLE': 1,
  'EXTENSION': 1,
  'PYMODULE': 1,
  'PYSOURCE': 1,
  'PYZ': 0},
 [('PYZ-00.pyz',
   'C:\\Users\\w_becker\\Google '
   'Drive\\oscilloscope\\testes_arduino\\receive_stuff1_exe\\build\\receive_stuff1\\PYZ-00.pyz',
   'PYZ'),
  ('struct',
   'C:\\Users\\w_becker\\Google '
   'Drive\\oscilloscope\\testes_arduino\\receive_stuff1_exe\\build\\receive_stuff1\\localpycos\\struct.pyo',
   'PYMODULE'),
  ('pyimod01_os_path',
   'C:\\Users\\w_becker\\Google '
   'Drive\\oscilloscope\\testes_arduino\\receive_stuff1_exe\\build\\receive_stuff1\\localpycos\\pyimod01_os_path.pyc',
   'PYMODULE'),
  ('pyimod02_archive',
   'C:\\Users\\w_becker\\Google '
   'Drive\\oscilloscope\\testes_arduino\\receive_stuff1_exe\\build\\receive_stuff1\\localpycos\\pyimod02_archive.pyc',
   'PYMODULE'),
  ('pyimod03_importers',
   'C:\\Users\\w_becker\\Google '
   'Drive\\oscilloscope\\testes_arduino\\receive_stuff1_exe\\build\\receive_stuff1\\localpycos\\pyimod03_importers.pyc',
   'PYMODULE'),
  ('pyiboot01_bootstrap',
   'c:\\program files '
   '(x86)\\python37-32\\lib\\site-packages\\PyInstaller\\loader\\pyiboot01_bootstrap.py',
   'PYSOURCE'),
  ('receive_stuff1',
   'C:\\Users\\w_becker\\Google '
   'Drive\\oscilloscope\\testes_arduino\\receive_stuff1_exe\\receive_stuff1.py',
   'PYSOURCE'),
  ('receive_stuff1.exe.manifest',
   'C:\\Users\\w_becker\\Google '
   'Drive\\oscilloscope\\testes_arduino\\receive_stuff1_exe\\build\\receive_stuff1\\receive_stuff1.exe.manifest',
   'BINARY')],
 True,
 False,
 False)
