<Qucs Schematic 0.0.18>
<Properties>
  <View=-40,-17,1031,680,1.1,147,0>
  <Grid=10,10,1>
  <DataSet=circuito entrada final.dat>
  <DataDisplay=circuito entrada final.dpl>
  <OpenDisplay=1>
  <Script=circuito entrada final.m>
  <RunScript=0>
  <showFrame=0>
  <FrameText0=Título>
  <FrameText1=Desenhado por:>
  <FrameText2=Data:>
  <FrameText3=Revisão:>
</Properties>
<Symbol>
  <.PortSym 40 20 1 0>
  <.PortSym 40 60 2 0>
  <.PortSym 40 100 3 0>
  <.PortSym 40 140 4 0>
  <.PortSym 20 170 5 0>
</Symbol>
<Components>
  <OpAmp OP1 1 570 180 -26 42 0 0 "1e6" 0 "15 V" 0>
  <Diode D1 1 490 130 -31 -26 0 3 "1e-15 A" 0 "1" 0 "10 fF" 0 "0.5" 0 "0.7 V" 0 "0.5" 0 "0.0 fF" 0 "0.0" 0 "2.0" 0 "0.0 Ohm" 0 "0.0 ps" 0 "0" 0 "0.0" 0 "1.0" 0 "1.0" 0 "0" 0 "1 mA" 0 "26.85" 0 "3.0" 0 "1.11" 0 "0.0" 0 "0.0" 0 "0.0" 0 "0.0" 0 "0.0" 0 "0.0" 0 "26.85" 0 "1.0" 0 "normal" 0>
  <Diode D2 1 490 190 -24 -26 0 3 "1e-15 A" 0 "1" 0 "10 fF" 0 "0.5" 0 "0.7 V" 0 "0.5" 0 "0.0 fF" 0 "0.0" 0 "2.0" 0 "0.0 Ohm" 0 "0.0 ps" 0 "0" 0 "0.0" 0 "1.0" 0 "1.0" 0 "0" 0 "1 mA" 0 "26.85" 0 "3.0" 0 "1.11" 0 "0.0" 0 "0.0" 0 "0.0" 0 "0.0" 0 "0.0" 0 "0.0" 0 "26.85" 0 "1.0" 0 "normal" 0>
  <GND * 1 490 220 0 0 0 0>
  <R R2 1 400 120 -107 -24 0 3 "500k Ohm" 1 "26.85" 0 "0.0" 0 "0.0" 0 "26.85" 0 "US" 0>
  <R R1 1 350 160 -26 15 0 0 "500k Ohm" 1 "26.85" 0 "0.0" 0 "0.0" 0 "26.85" 0 "US" 0>
  <Port 3V4 1 400 90 12 -23 1 3 "2" 0 "analog" 0>
  <Port 3V2 1 490 90 12 -23 1 3 "3" 0 "analog" 0>
  <Port Entrada 1 260 160 -23 12 0 0 "4" 0 "analog" 0>
  <R R4 1 690 180 -26 15 0 0 "50 Ohm" 1 "26.85" 0 "0.0" 0 "0.0" 0 "26.85" 0 "US" 0>
  <GND * 1 760 240 0 0 0 0>
  <C C1 1 760 210 17 -26 0 1 "330 pF" 1 "" 0 "neutral" 0>
  <Port Saída 1 830 180 4 -28 0 2 "5" 0 "analog" 0>
  <OpAmp OP2 1 350 350 -26 42 0 0 "1e6" 0 "15 V" 0>
  <potentiometer POT2 1 190 330 -52 -32 0 3 "1e4" 0 "120" 0 "0" 0 "1" 0 "240.0" 0 "0.2" 0 "0.2" 0 "1" 0 "100" 0 "26.85" 0 "26.85" 0>
  <GND * 1 190 390 0 0 0 0>
  <Port 3V3 1 190 270 12 -23 1 3 "1" 0 "analog" 0>
  <GND * 1 240 390 0 0 0 0>
  <C C2 1 240 360 17 -26 0 1 "10nF" 1 "" 0 "neutral" 0>
  <R R3 1 420 350 -26 -47 1 0 "10k Ohm" 1 "26.85" 0 "0.0" 0 "0.0" 0 "26.85" 0 "US" 0>
  <potentiometer POT1 1 630 270 -32 19 0 0 "1e4" 0 "120" 0 "0" 0 "1" 0 "240.0" 0 "0.2" 0 "0.2" 0 "1" 0 "100" 0 "26.85" 0 "26.85" 0>
</Components>
<Wires>
  <490 160 540 160 "" 0 0 0 "">
  <610 180 630 180 "" 0 0 0 "">
  <380 160 400 160 "" 0 0 0 "">
  <400 160 490 160 "" 0 0 0 "">
  <400 150 400 160 "" 0 0 0 "">
  <490 90 490 100 "" 0 0 0 "">
  <260 160 320 160 "" 0 0 0 "">
  <630 180 660 180 "" 0 0 0 "">
  <720 180 760 180 "" 0 0 0 "">
  <760 180 830 180 "" 0 0 0 "">
  <320 370 320 410 "" 0 0 0 "">
  <320 410 390 410 "" 0 0 0 "">
  <390 350 390 410 "" 0 0 0 "">
  <210 330 240 330 "" 0 0 0 "">
  <190 370 190 390 "" 0 0 0 "">
  <190 270 190 290 "" 0 0 0 "">
  <240 330 320 330 "" 0 0 0 "">
  <630 180 630 250 "" 0 0 0 "">
  <530 270 590 270 "" 0 0 0 "">
  <530 200 530 270 "" 0 0 0 "">
</Wires>
<Diagrams>
</Diagrams>
<Paintings>
</Paintings>
