<Qucs Schematic 0.0.18>
<Properties>
  <View=-256,-134,1153,738,0.691566,0,0>
  <Grid=10,10,1>
  <DataSet=entradanaoinvers.dat>
  <DataDisplay=entradanaoinvers.dpl>
  <OpenDisplay=1>
  <Script=entradanaoinvers.m>
  <RunScript=0>
  <showFrame=0>
  <FrameText0=Título>
  <FrameText1=Desenhado por:>
  <FrameText2=Data:>
  <FrameText3=Revisão:>
</Properties>
<Symbol>
</Symbol>
<Components>
  <R R3 1 770 170 -26 15 0 0 "5000 Ohm" 1 "26.85" 0 "0.0" 0 "0.0" 0 "26.85" 0 "US" 0>
  <GND * 1 860 250 0 0 0 0>
  <.DC DC1 1 840 640 0 41 0 0 "26.85" 0 "0.001" 0 "1 pA" 0 "1 uV" 0 "no" 0 "150" 0 "no" 0 "none" 0 "CroutLU" 0>
  <.AC AC1 1 400 570 0 41 0 0 "log" 1 "1 Hz" 1 "10 MHz" 1 "300" 1 "no" 0>
  <GND * 1 540 450 0 0 0 0>
  <R R2 1 580 260 -26 -47 1 0 "RESISTANCE" 1 "26.85" 0 "0.0" 0 "0.0" 0 "26.85" 0 "US" 0>
  <Eqn Eqn1 1 530 -40 -24 15 0 0 "H=Vout.v/Vin.v" 1 "yes" 0>
  <R R8 1 860 140 15 -26 0 1 "5000 Ohm" 1 "26.85" 0 "0.0" 0 "0.0" 0 "26.85" 0 "US" 0>
  <Vdc V4 1 860 80 -55 -26 0 3 "3.3 V" 1>
  <GND * 1 310 260 0 0 0 0>
  <GND * 1 -150 280 0 0 0 0>
  <C C6 1 -80 100 -26 -49 1 0 "80fF" 1 "" 0 "neutral" 0>
  <C C1 1 40 100 -26 -49 1 0 "80fF" 1 "" 0 "neutral" 0>
  <R R6 1 -80 140 -26 15 0 0 "300k Ohm" 1 "26.85" 0 "0.0" 0 "0.0" 0 "26.85" 0 "US" 0>
  <R R1 1 40 140 -26 15 0 0 "300k Ohm" 1 "26.85" 0 "0.0" 0 "0.0" 0 "26.85" 0 "US" 0>
  <R R7 1 160 140 -26 15 0 0 "300k Ohm" 1 "26.85" 0 "0.0" 0 "0.0" 0 "26.85" 0 "US" 0>
  <C C4 1 290 190 -59 -26 1 1 "80fF" 1 "" 0 "neutral" 0>
  <C C7 1 160 100 -26 -49 1 0 "80fF" 1 "" 0 "neutral" 0>
  <Diode D_1N4148_1 1 510 120 -80 -26 0 3 "222p" 1 "1.65" 1 "4p" 0 "0.333" 0 "0.7" 0 "0.5" 0 "0" 0 "0" 0 "2" 0 "68.6m" 0 "5.76n" 0 "0" 0 "0" 0 "1" 0 "1" 0 "75" 0 "1u" 0 "26.85" 0 "3.0" 0 "1.11" 0 "0.0" 0 "0.0" 0 "0.0" 0 "0.0" 0 "0.0" 0 "0.0" 0 "26.85" 0 "1.0" 0 "normal" 0>
  <Diode D_1N4148_2 1 510 180 -80 -26 0 3 "222p" 1 "1.65" 1 "4p" 0 "0.333" 0 "0.7" 0 "0.5" 0 "0" 0 "0" 0 "2" 0 "68.6m" 0 "5.76n" 0 "0" 0 "0" 0 "1" 0 "1" 0 "75" 0 "1u" 0 "26.85" 0 "3.0" 0 "1.11" 0 "0.0" 0 "0.0" 0 "0.0" 0 "0.0" 0 "0.0" 0 "0.0" 0 "26.85" 0 "1.0" 0 "normal" 0>
  <Vdc V5 1 390 80 18 -26 0 1 "3.3 V" 1>
  <Vdc V6 1 510 240 -66 -26 0 3 "3.3 V" 1>
  <GND * 1 390 110 0 0 0 0>
  <GND * 1 510 270 0 0 0 0>
  <GND * 1 900 60 0 0 0 0>
  <R R5 1 540 360 -85 -26 1 1 "1k Ohm" 1 "26.85" 0 "0.0" 0 "0.0" 0 "26.85" 0 "US" 0>
  <C C8 1 580 300 -26 17 1 2 "4.7pF" 1 "" 0 "neutral" 0>
  <.TR TR1 0 950 480 0 67 0 0 "lin" 1 "0" 1 ".1 ms" 1 "1001" 0 "Trapezoidal" 0 "2" 0 "1 ns" 0 "1e-16" 0 "150" 0 "0.001" 0 "1 pA" 0 "1 uV" 0 "26.85" 0 "1e-3" 0 "1e-6" 0 "1" 0 "CroutLU" 0 "no" 0 "yes" 0 "0" 0>
  <Vac V3 1 -150 190 -66 -26 1 1 "15 V" 1 "100 kHz" 0 "0" 0 "0" 0>
  <Eqn Eqn2 0 150 420 -24 15 0 0 "RESISTANCE=1000" 1 "yes" 0>
  <.SW SW1 1 130 530 0 67 0 0 "AC1" 1 "log" 1 "RESISTANCE" 1 "100" 1 "100000" 1 "6" 1>
  <R R4 1 330 190 15 -26 0 1 "200k Ohm" 1 "26.85" 0 "0.0" 0 "0.0" 0 "26.85" 0 "US" 0>
  <C C3 1 860 220 17 -26 0 1 "20 pF" 1 "" 0 "neutral" 0>
  <mod_amp OP1 1 580 170 44 -34 0 0 "10e6" 0 "120.0" 0 "100e6" 0 "400" 0 "1.6e-12" 0 "100e6" 0 "2e-12" 0 "5e-12" 0 "5e-6" 0 "120.0" 0 "200.0" 0 "20e6" 0 "20e6" 0 "3.3" 0 "-3.3" 1 "65e-3" 0 "50" 0>
</Components>
<Wires>
  <800 170 860 170 "" 0 0 0 "">
  <620 170 740 170 "" 0 0 0 "">
  <540 190 550 190 "" 0 0 0 "">
  <540 190 540 260 "" 0 0 0 "">
  <540 260 540 300 "" 0 0 0 "">
  <540 390 540 450 "" 0 0 0 "">
  <620 170 620 260 "" 0 0 0 "">
  <610 260 620 260 "" 0 0 0 "">
  <540 260 550 260 "" 0 0 0 "">
  <860 170 860 190 "" 0 0 0 "">
  <310 140 310 150 "" 0 0 0 "">
  <310 150 510 150 "" 0 0 0 "">
  <310 220 330 220 "" 0 0 0 "">
  <310 220 310 260 "" 0 0 0 "">
  <310 160 330 160 "" 0 0 0 "">
  <310 150 310 160 "" 0 0 0 "">
  <190 140 310 140 "" 0 0 0 "">
  <-150 220 -150 280 "" 0 0 0 "">
  <-50 100 -50 140 "" 0 0 0 "">
  <-110 100 -110 140 "" 0 0 0 "">
  <-150 140 -150 160 "" 0 0 0 "">
  <-150 140 -110 140 "Vin" -100 110 16 "">
  <70 100 70 140 "" 0 0 0 "">
  <10 100 10 140 "" 0 0 0 "">
  <-50 140 10 140 "" 0 0 0 "">
  <70 140 130 140 "" 0 0 0 "">
  <290 160 310 160 "" 0 0 0 "">
  <290 220 310 220 "" 0 0 0 "">
  <190 100 190 140 "" 0 0 0 "">
  <130 100 130 140 "" 0 0 0 "">
  <510 150 550 150 "" 0 0 0 "">
  <390 50 510 50 "" 0 0 0 "">
  <510 50 510 90 "" 0 0 0 "">
  <860 170 1050 170 "" 0 0 0 "">
  <860 50 900 50 "" 0 0 0 "">
  <900 50 900 60 "" 0 0 0 "">
  <540 300 540 330 "" 0 0 0 "">
  <540 300 550 300 "" 0 0 0 "">
  <610 300 620 300 "" 0 0 0 "">
  <620 260 620 300 "" 0 0 0 "">
  <1050 170 1050 170 "Vout" 1080 140 0 "">
</Wires>
<Diagrams>
</Diagrams>
<Paintings>
</Paintings>
