<Qucs Schematic 0.0.18>
<Properties>
  <View=-50,-31,1247,1000,0.656,0,102>
  <Grid=10,10,1>
  <DataSet=filtro3.dat>
  <DataDisplay=filtro3.dpl>
  <OpenDisplay=1>
  <Script=filtro3.m>
  <RunScript=0>
  <showFrame=0>
  <FrameText0=Título>
  <FrameText1=Desenhado por:>
  <FrameText2=Data:>
  <FrameText3=Revisão:>
</Properties>
<Symbol>
</Symbol>
<Components>
  <R R2 1 320 160 -26 -47 1 0 "50 Ohm" 1 "26.85" 0 "0.0" 0 "0.0" 0 "26.85" 0 "US" 0>
  <R R12 1 410 160 -26 -46 1 0 "300 Ohm" 1 "26.85" 0 "0.0" 0 "0.0" 0 "26.85" 0 "US" 0>
  <Vac V1 1 270 200 18 -26 0 1 "1.65V" 1 "100kHz" 0 "0" 0 "0" 0>
  <.DC DC1 1 30 340 0 42 0 0 "26.85" 0 "0.001" 0 "1 pA" 0 "1 uV" 0 "no" 0 "150" 0 "no" 0 "none" 0 "CroutLU" 0>
  <.AC AC1 1 0 460 0 42 0 0 "log" 1 "1" 1 "100 MHz" 1 "200" 1 "no" 0>
  <.TR TR1 1 20 0 0 69 0 0 "lin" 1 "0" 1 "100 us" 1 "1001" 0 "Trapezoidal" 0 "2" 0 "1 ns" 0 "1e-16" 0 "150" 0 "0.001" 0 "1 pA" 0 "1 uV" 0 "26.85" 0 "1e-3" 0 "1e-6" 0 "1" 0 "CroutLU" 0 "no" 0 "yes" 0 "0" 0>
  <GND * 1 270 340 0 0 0 0>
  <Vdc V2 1 270 310 18 -26 0 1 "1.65 V" 1>
  <C C6 1 550 210 17 -26 0 1 "47pF" 1 "" 0 "neutral" 0>
  <R R14 1 510 160 -26 -46 1 0 "15k Ohm" 1 "26.85" 0 "0.0" 0 "0.0" 0 "26.85" 0 "US" 0>
  <R R19 1 730 220 -89 -26 1 1 "R_pot2" 1 "26.85" 0 "0.0" 0 "0.0" 0 "26.85" 0 "US" 0>
  <R R21 1 630 160 -26 -54 0 2 "R_pot" 1 "26.85" 0 "0.0" 0 "0.0" 0 "26.85" 0 "US" 0>
  <Eqn Eqn1 1 260 540 -24 15 0 0 "R_pot=33k" 1 "R_pot3=R_pot1swp" 1 "R_pot2=100e3-R_pot" 1 "R_pot4=100e3-R_pot" 1 "H=SigGen.v/Vdac.v" 1 "yes" 0>
  <C C1 1 450 230 -77 -26 1 1 "2200pF" 1 "" 0 "neutral" 0>
  <OpAmp OP3 1 800 450 -26 42 0 0 "1e6" 0 "5 V" 0>
  <GND * 1 650 490 0 0 0 0>
  <Vdc V3 1 530 460 -73 -26 1 1 "5 V" 1>
  <OpAmp OP2 1 1000 180 -26 42 0 0 "1e6" 0 "5 V" 0>
  <R R22 1 600 430 -26 -54 0 2 "R_pot3" 1 "26.85" 0 "0.0" 0 "0.0" 0 "26.85" 0 "US" 0>
  <R R23 1 650 460 -89 -26 1 1 "R_pot4" 1 "26.85" 0 "0.0" 0 "0.0" 0 "26.85" 0 "US" 0>
  <R R13 1 1170 180 -26 15 0 0 "50 Ohm" 1 "26.85" 0 "0.0" 0 "0.0" 0 "26.85" 0 "US" 0>
  <R R25 1 940 400 -92 -26 1 1 "100k Ohm" 1 "26.85" 0 "0.0" 0 "0.0" 0 "26.85" 0 "US" 0>
  <R R24 1 1020 270 -26 15 0 0 "56k Ohm" 1 "26.85" 0 "0.0" 0 "0.0" 0 "26.85" 0 "US" 0>
  <C C7 1 1020 350 -26 17 1 2 "27pF" 1 "" 0 "neutral" 0>
  <.SW SW1 1 20 650 0 69 0 0 "TR1" 0 "lin" 1 "R_pot1swp" 1 "0" 1 "100k" 1 "5" 1>
</Components>
<Wires>
  <550 160 550 180 "" 0 0 0 "">
  <540 160 550 160 "" 0 0 0 "">
  <450 160 480 160 "" 0 0 0 "">
  <350 160 380 160 "Vdac" 340 30 7 "">
  <440 160 450 160 "" 0 0 0 "">
  <270 160 290 160 "" 0 0 0 "">
  <270 160 270 170 "" 0 0 0 "">
  <270 230 270 280 "" 0 0 0 "">
  <270 280 270 290 "" 0 0 0 "">
  <270 290 450 290 "" 0 0 0 "">
  <540 290 550 290 "" 0 0 0 "">
  <550 240 550 290 "" 0 0 0 "">
  <450 290 540 290 "" 0 0 0 "">
  <730 160 730 190 "" 0 0 0 "">
  <550 290 730 290 "" 0 0 0 "">
  <730 250 730 290 "" 0 0 0 "">
  <550 160 600 160 "" 0 0 0 "">
  <660 160 730 160 "filtro1" 741 160 70 "">
  <450 160 450 200 "" 0 0 0 "">
  <450 260 450 290 "" 0 0 0 "">
  <630 430 650 430 "" 0 0 0 "">
  <530 430 570 430 "" 0 0 0 "">
  <530 490 650 490 "" 0 0 0 "">
  <770 470 770 510 "" 0 0 0 "">
  <770 510 850 510 "" 0 0 0 "">
  <850 450 850 510 "" 0 0 0 "">
  <840 450 850 450 "" 0 0 0 "">
  <730 160 970 160 "" 0 0 0 "">
  <650 430 770 430 "" 0 0 0 "">
  <1040 180 1110 180 "SigGen" 1110 150 41 "">
  <940 200 940 270 "" 0 0 0 "">
  <940 200 970 200 "" 0 0 0 "">
  <1110 180 1140 180 "" 0 0 0 "">
  <850 450 940 450 "" 0 0 0 "">
  <940 430 940 450 "" 0 0 0 "">
  <1110 180 1110 270 "" 0 0 0 "">
  <1050 270 1110 270 "" 0 0 0 "">
  <940 270 940 350 "" 0 0 0 "">
  <940 270 990 270 "" 0 0 0 "">
  <940 350 940 370 "" 0 0 0 "">
  <940 350 990 350 "" 0 0 0 "">
  <1050 350 1110 350 "" 0 0 0 "">
  <1110 270 1110 350 "" 0 0 0 "">
</Wires>
<Diagrams>
  <Tab 610 870 300 200 3 #c0c0c0 1 00 1 0 1 1 1 0 1 1 1 0 1 1 315 0 225 "" "" "">
	<"SigGen.V" #0000ff 0 3 1 0 0>
  </Tab>
</Diagrams>
<Paintings>
  <Text 980 160 12 #000000 0 "5\n6">
</Paintings>
