<Qucs Schematic 0.0.18>
<Properties>
  <View=-20,-102,1618,853,0.645986,0,0>
  <Grid=10,10,1>
  <DataSet=filtro2.dat>
  <DataDisplay=filtro2.dpl>
  <OpenDisplay=1>
  <Script=filtro2.m>
  <RunScript=0>
  <showFrame=0>
  <FrameText0=Título>
  <FrameText1=Desenhado por:>
  <FrameText2=Data:>
  <FrameText3=Revisão:>
</Properties>
<Symbol>
</Symbol>
<Components>
  <.DC DC1 1 30 340 0 42 0 0 "26.85" 0 "0.001" 0 "1 pA" 0 "1 uV" 0 "no" 0 "150" 0 "no" 0 "none" 0 "CroutLU" 0>
  <.AC AC1 1 0 460 0 42 0 0 "log" 1 "1" 1 "100 MHz" 1 "200" 1 "no" 0>
  <.TR TR1 1 20 0 0 69 0 0 "lin" 1 "0" 1 "40 us" 1 "1001" 0 "Trapezoidal" 0 "2" 0 "1 ns" 0 "1e-16" 0 "150" 0 "0.001" 0 "1 pA" 0 "1 uV" 0 "26.85" 0 "1e-3" 0 "1e-6" 0 "1" 0 "CroutLU" 0 "no" 0 "yes" 0 "0" 0>
  <R R2 1 300 160 -26 -47 1 0 "50 Ohm" 1 "26.85" 0 "0.0" 0 "0.0" 0 "26.85" 0 "US" 0>
  <R R12 1 390 160 -26 -46 1 0 "300 Ohm" 1 "26.85" 0 "0.0" 0 "0.0" 0 "26.85" 0 "US" 0>
  <C C1 1 430 210 17 -26 0 1 "2200pF" 1 "" 0 "neutral" 0>
  <GND * 1 250 340 0 0 0 0>
  <Vdc V2 1 250 310 18 -26 0 1 "1.65 V" 1>
  <R R20 1 600 160 -26 -46 1 0 "R_pot" 1 "26.85" 0 "0.0" 0 "0.0" 0 "26.85" 0 "US" 0>
  <Eqn Eqn1 1 290 -10 -24 15 0 0 "R_pot=R_potswp" 1 "R_pot2=100e3-R_pot" 1 "R_pot3=33k" 1 "yes" 0>
  <C C6 1 530 210 17 -26 0 1 "47pF" 1 "" 0 "neutral" 0>
  <Vac V1 1 250 200 18 -26 0 1 "1.65V" 1 "100kHz" 0 "0" 0 "0" 0>
  <OpAmp OP1 1 790 180 -26 42 0 0 "1e6" 1 "15 V" 0>
  <R R7 1 990 180 -26 -47 0 2 "8.2 kOhm" 1 "26.85" 0 "0.0" 0 "0.0" 0 "26.85" 0 "US" 0>
  <R R6 1 910 180 -26 15 1 2 "8.2k Ohm" 1 "26.85" 0 "0.0" 0 "0.0" 0 "26.85" 0 "US" 0>
  <R R13 1 1230 200 -26 15 0 0 "50 Ohm" 1 "26.85" 0 "0.0" 0 "0.0" 0 "26.85" 0 "US" 0>
  <GND * 1 1320 260 0 0 0 0>
  <GND * 1 1020 360 0 0 0 0>
  <Vdc V3 1 1020 330 18 -26 0 1 "1.65 V" 1>
  <OpAmp OP2 1 1110 200 -26 42 0 0 "1e6" 1 "15 V" 0>
  <C C8 1 1290 200 -26 -49 0 2 "220nF" 1 "" 0 "neutral" 0>
  <R R22 1 1320 230 15 -26 0 1 "1M Ohm" 1 "26.85" 0 "0.0" 0 "0.0" 0 "26.85" 0 "US" 0>
  <R R14 1 490 160 -26 -46 1 0 "22k Ohm" 1 "26.85" 0 "0.0" 0 "0.0" 0 "26.85" 0 "US" 0>
  <C C4 1 1020 230 17 -26 0 1 "47 pF" 1 "" 0 "neutral" 0>
  <C C3 1 1090 100 -26 17 0 0 "300p" 1 "" 0 "neutral" 0>
  <.SW SW1 1 10 620 0 69 0 0 "TR1" 0 "lin" 1 "R_potswp" 1 "1" 1 "100k" 1 "5" 1>
  <R R21 1 670 190 14 -26 0 1 "R_pot2" 1 "26.85" 0 "0.0" 0 "0.0" 0 "26.85" 0 "US" 0>
  <R R23 2 670 250 -84 -26 1 1 "22k Ohm" 1 "26.85" 0 "0.0" 0 "0.0" 0 "26.85" 0 "US" 0>
</Components>
<Wires>
  <520 160 530 160 "" 0 0 0 "">
  <430 160 460 160 "" 0 0 0 "">
  <430 160 430 180 "" 0 0 0 "">
  <330 160 360 160 "Vdac" 340 230 17 "">
  <420 160 430 160 "" 0 0 0 "">
  <250 160 270 160 "" 0 0 0 "">
  <250 160 250 170 "" 0 0 0 "">
  <250 230 250 280 "" 0 0 0 "">
  <250 280 250 290 "" 0 0 0 "">
  <250 290 430 290 "" 0 0 0 "">
  <430 290 530 290 "" 0 0 0 "">
  <430 240 430 290 "" 0 0 0 "">
  <630 160 670 160 "" 0 0 0 "">
  <530 160 570 160 "" 0 0 0 "">
  <530 160 530 180 "" 0 0 0 "">
  <530 240 530 290 "" 0 0 0 "">
  <670 160 760 160 "" 0 0 0 "">
  <850 180 850 240 "" 0 0 0 "">
  <830 180 850 180 "" 0 0 0 "">
  <730 200 730 240 "" 0 0 0 "">
  <730 200 760 200 "" 0 0 0 "">
  <730 240 850 240 "" 0 0 0 "">
  <850 180 880 180 "" 0 0 0 "">
  <1180 200 1200 200 "" 0 0 0 "">
  <1020 180 1020 200 "" 0 0 0 "">
  <1180 200 1180 280 "" 0 0 0 "">
  <940 180 960 180 "" 0 0 0 "">
  <1020 260 1020 300 "" 0 0 0 "">
  <1150 200 1180 200 "" 0 0 0 "">
  <1080 280 1180 280 "" 0 0 0 "">
  <1080 220 1080 280 "" 0 0 0 "">
  <1020 180 1080 180 "" 0 0 0 "">
  <1180 100 1180 200 "" 0 0 0 "">
  <1120 100 1180 100 "SigGen" 1450 20 60 "">
  <960 100 960 180 "" 0 0 0 "">
  <960 100 1060 100 "" 0 0 0 "">
  <670 280 670 290 "" 0 0 0 "">
  <530 290 670 290 "" 0 0 0 "">
  <1320 200 1320 200 "out" 1350 170 0 "">
  <850 180 850 180 "filtro" 870 30 0 "">
</Wires>
<Diagrams>
</Diagrams>
<Paintings>
  <Text 1160 180 12 #000000 0 "7\n">
  <Text 1140 140 12 #000000 0 "8">
</Paintings>
