<Qucs Schematic 0.0.18>
<Properties>
  <View=120,-69,1102,541,0.940984,0,0>
  <Grid=10,10,1>
  <DataSet=filtroDAC.dat>
  <DataDisplay=filtroDAC.dpl>
  <OpenDisplay=1>
  <Script=filtroDAC.m>
  <RunScript=0>
  <showFrame=0>
  <FrameText0=Título>
  <FrameText1=Desenhado por:>
  <FrameText2=Data:>
  <FrameText3=Revisão:>
</Properties>
<Symbol>
</Symbol>
<Components>
  <GND * 1 410 240 0 0 0 0>
  <R R3 1 500 200 15 -26 0 1 "1M" 1 "26.85" 0 "0.0" 0 "0.0" 0 "26.85" 0 "US" 0>
  <Vdc V2 1 430 330 18 -26 0 1 "5 V" 1>
  <Vdc V3 1 430 390 18 -26 1 3 "-5 V" 1>
  <GND * 1 370 360 0 0 0 0>
  <R R10 1 540 400 15 -26 0 1 "R_pot" 1 "26.85" 0 "0.0" 0 "0.0" 0 "26.85" 0 "US" 0>
  <GND * 1 810 260 0 0 0 0>
  <OpAmp OP2 1 920 200 -26 42 0 0 "1e6" 0 "15 V" 0>
  <R R9 1 540 340 15 -26 0 1 "R_pot2" 1 "26.85" 0 "0.0" 0 "0.0" 0 "26.85" 0 "US" 0>
  <R R2 1 280 160 -26 -47 1 0 "50 Ohm" 1 "26.85" 0 "0.0" 0 "0.0" 0 "26.85" 0 "US" 0>
  <C C2 1 460 160 -26 -49 1 0 "1000nF" 1 "" 0 "neutral" 0>
  <R R8 1 540 160 -26 -47 1 0 "30k Ohm" 1 "26.85" 0 "0.0" 0 "0.0" 0 "26.85" 0 "US" 0>
  <R R6 1 720 180 -26 15 1 2 "8.2k Ohm" 1 "26.85" 0 "0.0" 0 "0.0" 0 "26.85" 0 "US" 0>
  <R R7 1 780 180 -26 -47 0 2 "8.2 kOhm" 1 "26.85" 0 "0.0" 0 "0.0" 0 "26.85" 0 "US" 0>
  <C C3 1 880 100 -26 17 0 0 "330p" 1 "" 0 "neutral" 0>
  <R R12 1 370 160 -26 -46 1 0 "3000 Ohm" 1 "26.85" 0 "0.0" 0 "0.0" 0 "26.85" 0 "US" 0>
  <C C5 1 640 20 -26 -49 1 0 "27 pF" 1 "" 0 "neutral" 0>
  <R R13 1 1020 200 -26 15 0 0 "50 Ohm" 1 "26.85" 0 "0.0" 0 "0.0" 0 "26.85" 0 "US" 0>
  <Vac V1 1 230 210 18 -26 0 1 "3.3V" 1 "100kHz" 0 "0" 0 "0" 0>
  <GND * 1 230 240 0 0 0 0>
  <C C4 1 810 230 17 -26 0 1 "68 pF" 1 "" 0 "neutral" 0>
  <C C1 1 410 210 17 -26 0 1 "220pF" 1 "" 0 "neutral" 0>
  <R R11 1 640 60 -26 15 1 2 "R_pot3" 1 "26.85" 0 "0.0" 0 "0.0" 0 "26.85" 0 "US" 0>
  <OpAmp OP1 1 640 180 -26 -58 1 0 "1e6" 0 "15 V" 0>
  <Eqn Eqn1 1 290 -10 -24 15 0 0 "R_pot=33k" 1 "R_pot2=100e3-R_pot" 1 "R_pot3=33k" 1 "H=SigGen.v/Vdac.v" 1 "yes" 0>
  <.AC AC1 1 670 350 0 40 0 0 "log" 1 "1" 1 "100 MHz" 1 "200" 1 "no" 0>
  <.DC DC1 1 170 350 0 40 0 0 "26.85" 0 "0.001" 0 "1 pA" 0 "1 uV" 0 "no" 0 "150" 0 "no" 0 "none" 0 "CroutLU" 0>
  <.SW SW1 1 910 340 0 66 0 0 "AC1" 0 "lin" 1 "R_pot3swp" 1 "1" 1 "100k" 1 "5" 1>
</Components>
<Wires>
  <410 240 500 240 "" 0 0 0 "">
  <500 230 500 240 "" 0 0 0 "">
  <500 160 500 170 "" 0 0 0 "">
  <370 360 430 360 "" 0 0 0 "">
  <430 290 430 300 "" 0 0 0 "">
  <430 290 540 290 "" 0 0 0 "">
  <540 290 540 310 "" 0 0 0 "">
  <540 430 540 440 "" 0 0 0 "">
  <430 440 540 440 "" 0 0 0 "">
  <430 420 430 440 "" 0 0 0 "">
  <600 60 600 160 "" 0 0 0 "">
  <600 60 610 60 "" 0 0 0 "">
  <670 60 690 60 "" 0 0 0 "">
  <690 60 690 180 "" 0 0 0 "">
  <600 20 600 60 "" 0 0 0 "">
  <600 20 610 20 "" 0 0 0 "">
  <670 20 690 20 "" 0 0 0 "">
  <690 20 690 60 "" 0 0 0 "">
  <810 180 810 200 "" 0 0 0 "">
  <810 180 890 180 "" 0 0 0 "">
  <750 100 750 180 "" 0 0 0 "">
  <750 100 850 100 "" 0 0 0 "">
  <910 100 970 100 "SigGen" 990 80 50 "">
  <890 220 890 280 "" 0 0 0 "">
  <890 280 970 280 "" 0 0 0 "">
  <960 200 970 200 "" 0 0 0 "">
  <970 200 970 280 "" 0 0 0 "">
  <970 100 970 200 "" 0 0 0 "">
  <410 160 410 180 "" 0 0 0 "">
  <230 160 230 180 "" 0 0 0 "">
  <230 160 250 160 "" 0 0 0 "">
  <310 160 340 160 "Vdac" 320 230 7 "">
  <400 160 410 160 "" 0 0 0 "">
  <490 160 500 160 "" 0 0 0 "">
  <410 160 430 160 "" 0 0 0 "">
  <570 160 600 160 "" 0 0 0 "">
  <500 160 510 160 "" 0 0 0 "">
  <970 200 990 200 "" 0 0 0 "">
  <680 180 690 180 "" 0 0 0 "">
  <540 370 610 370 "" 0 0 0 "">
  <610 200 610 370 "" 0 0 0 "">
  <600 160 610 160 "" 0 0 0 "">
</Wires>
<Diagrams>
</Diagrams>
<Paintings>
  <Text 610 160 12 #000000 0 "2\n3">
  <Text 670 160 12 #000000 0 "1\n">
  <Text 650 220 12 #000000 0 "4">
  <Text 890 180 12 #000000 0 "5\n6">
  <Text 950 180 12 #000000 0 "7\n">
  <Text 930 140 12 #000000 0 "8">
</Paintings>
