<Qucs Schematic 0.0.18>
<Properties>
  <View=-404,-313,1118,784,1.1,112,213>
  <Grid=10,10,1>
  <DataSet=geradorbonitinho.dat>
  <DataDisplay=geradorbonitinho.dpl>
  <OpenDisplay=1>
  <Script=geradorbonitinho.m>
  <RunScript=0>
  <showFrame=0>
  <FrameText0=Título>
  <FrameText1=Desenhado por:>
  <FrameText2=Data:>
  <FrameText3=Revisão:>
</Properties>
<Symbol>
  <.PortSym 40 20 1 0>
  <.PortSym 40 60 2 0>
</Symbol>
<Components>
  <R R1 1 -100 120 -26 -47 0 2 "8.2 kOhm" 1 "26.85" 0 "0.0" 0 "0.0" 0 "26.85" 0 "US" 0>
  <R R2 1 -180 120 -26 15 1 2 "8.2k Ohm" 1 "26.85" 0 "0.0" 0 "0.0" 0 "26.85" 0 "US" 0>
  <C C1 1 -70 170 17 -26 0 1 "47 pF" 1 "" 0 "neutral" 0>
  <OpAmp OP1 1 60 140 -26 42 0 0 "1e6" 0 "15 V" 0>
  <GND * 1 -70 200 0 0 0 0>
  <R R4 1 160 140 -26 15 1 2 "8.2k Ohm" 1 "26.85" 0 "0.0" 0 "0.0" 0 "26.85" 0 "US" 0>
  <R R3 1 240 140 -26 -47 0 2 "8.2 kOhm" 1 "26.85" 0 "0.0" 0 "0.0" 0 "26.85" 0 "US" 0>
  <OpAmp OP2 1 390 160 -26 42 0 0 "1e6" 0 "15 V" 0>
  <R R5 1 460 160 -26 15 0 0 "50 Ohm" 1 "26.85" 0 "0.0" 0 "0.0" 0 "26.85" 0 "US" 0>
  <C C4 1 280 170 17 -26 0 1 "47 pF" 1 "" 0 "neutral" 0>
  <C C3 1 310 50 -26 17 0 0 "300p" 1 "" 0 "neutral" 0>
  <C C2 1 -50 50 -26 -49 1 0 "300p" 1 "" 0 "neutral" 0>
  <GND * 1 280 200 0 0 0 0>
  <Port Entrada 1 -210 120 -23 -28 1 0 "1" 0 "analog" 0>
  <Port Saida 1 490 160 4 -28 0 2 "2" 0 "analog" 0>
</Components>
<Wires>
  <100 140 120 140 "" 0 0 0 "">
  <30 160 30 200 "" 0 0 0 "">
  <30 200 120 200 "" 0 0 0 "">
  <120 140 120 200 "" 0 0 0 "">
  <-70 120 30 120 "" 0 0 0 "">
  <-70 120 -70 140 "" 0 0 0 "">
  <-150 120 -140 120 "" 0 0 0 "">
  <-140 120 -130 120 "" 0 0 0 "">
  <120 140 130 140 "" 0 0 0 "">
  <270 140 280 140 "" 0 0 0 "">
  <280 140 360 140 "" 0 0 0 "">
  <360 180 360 230 "" 0 0 0 "">
  <360 230 430 230 "" 0 0 0 "">
  <430 160 430 230 "" 0 0 0 "">
  <120 50 120 140 "" 0 0 0 "">
  <-20 50 120 50 "" 0 0 0 "">
  <-140 50 -140 120 "" 0 0 0 "">
  <-140 50 -80 50 "" 0 0 0 "">
  <190 140 200 140 "" 0 0 0 "">
  <200 140 210 140 "" 0 0 0 "">
  <200 50 200 140 "" 0 0 0 "">
  <200 50 280 50 "" 0 0 0 "">
  <340 50 430 50 "" 0 0 0 "">
  <430 50 430 160 "" 0 0 0 "">
</Wires>
<Diagrams>
</Diagrams>
<Paintings>
</Paintings>
