<Qucs Schematic 0.0.18>
<Properties>
  <View=-104,-83,1618,767,1.41148,737,143>
  <Grid=10,10,1>
  <DataSet=geradordefinitivo.dat>
  <DataDisplay=geradordefinitivo.dpl>
  <OpenDisplay=1>
  <Script=geradordefinitivo.m>
  <RunScript=0>
  <showFrame=0>
  <FrameText0=Título>
  <FrameText1=Desenhado por:>
  <FrameText2=Data:>
  <FrameText3=Revisão:>
</Properties>
<Symbol>
</Symbol>
<Components>
  <.DC DC1 1 30 340 0 42 0 0 "26.85" 0 "0.001" 0 "1 pA" 0 "1 uV" 0 "no" 0 "150" 0 "no" 0 "none" 0 "CroutLU" 0>
  <.AC AC1 1 0 460 0 42 0 0 "log" 1 "1" 1 "100 MHz" 1 "200" 1 "no" 0>
  <.SW SW1 1 10 620 0 69 0 0 "TR1" 0 "const" 1 "R_potswp" 1 "1" 0 "100k" 0 "[1]" 1>
  <C C9 1 10 180 17 -26 0 1 "1 pF" 1 "" 0 "neutral" 0>
  <GND * 1 10 210 0 0 0 0>
  <Vac V1 1 -70 230 18 -26 0 1 "1.65V" 1 "100kHz" 0 "0" 0 "0" 0>
  <Switch S1 1 -20 150 -26 11 0 0 "off" 0 "0.9us;0.1us" 0 "10" 0 "1e12" 0 "26.85" 0 "1e-6" 0>
  <.TR TR1 1 0 -50 0 69 0 0 "lin" 1 "6.28e-6" 1 "358 us" 1 "10001" 0 "Trapezoidal" 0 "2" 0 "1 ns" 0 "1e-16" 0 "150" 0 "0.001" 0 "1 pA" 0 "1 uV" 0 "26.85" 0 "1e-3" 0 "1e-6" 0 "1" 0 "CroutLU" 0 "no" 0 "yes" 0 "0" 0>
  <OpAmp OP3 1 120 160 -26 42 0 0 "1e6" 1 "15 V" 0>
  <Lib QNT1 1 200 160 -19 21 0 0 "Ideal" 0 "Quantizer" 0 "0" 1 "3.3" 1 "8" 1>
  <R R23 1 380 160 -26 -47 0 2 "8.2 kOhm" 1 "26.85" 0 "0.0" 0 "0.0" 0 "26.85" 0 "US" 0>
  <R R24 1 300 160 -26 15 1 2 "8.2k Ohm" 1 "26.85" 0 "0.0" 0 "0.0" 0 "26.85" 0 "US" 0>
  <C C10 1 410 210 17 -26 0 1 "47 pF" 1 "" 0 "neutral" 0>
  <GND * 1 410 280 0 0 0 0>
  <Eqn Eqn2 1 290 470 -24 15 0 0 "FFT=Time2Freq(filtro1.Vt, time)" 1 "FFT2=Time2Freq(SigGen.Vt, time)" 1 "yes" 0>
  <R R7 1 790 180 -26 -47 0 2 "8.2 kOhm" 1 "26.85" 0 "0.0" 0 "0.0" 0 "26.85" 0 "US" 0>
  <C C4 1 820 230 17 -26 0 1 "47 pF" 1 "" 0 "neutral" 0>
  <GND * 1 820 300 0 0 0 0>
  <R R6 1 710 180 -26 15 1 2 "8.2k Ohm" 1 "26.85" 0 "0.0" 0 "0.0" 0 "26.85" 0 "US" 0>
  <Vdc V2 1 -70 320 18 -26 0 1 "1.65 V" 1>
  <GND * 1 -70 350 0 0 0 0>
  <R R25 0 620 340 15 -26 1 3 "820k Ohm" 1 "26.85" 0 "0.0" 0 "0.0" 0 "26.85" 0 "US" 0>
  <Vdc V3 0 620 400 18 -26 0 1 "1.65 V" 1>
  <GND * 0 620 430 0 0 0 0>
  <Eqn Eqn1 1 260 -50 -24 15 0 0 "R_pot=R_potswp" 1 "H=out.v/Vdac.v" 1 "R_pot2=100e3-R_pot" 1 "R_pot3=33k" 1 "yes" 0>
  <C C11 1 480 50 -26 -49 1 0 "300p" 1 "" 0 "neutral" 0>
  <C C3 1 890 20 -26 17 0 0 "300p" 1 "" 0 "neutral" 0>
  <R R13 1 1190 200 -26 15 0 0 "50 Ohm" 1 "26.85" 0 "0.0" 0 "0.0" 0 "26.85" 0 "US" 0>
  <GND * 1 1280 260 0 0 0 0>
  <C C8 2 1250 200 -26 -49 0 2 "220nF" 1 "" 0 "neutral" 0>
  <R R22 1 1280 230 15 -26 0 1 "50 Ohm" 1 "26.85" 0 "0.0" 0 "0.0" 0 "26.85" 0 "US" 0>
  <Lib OP4 1 530 180 -20 -85 1 0 "OpAmps" 0 "tl071(TI)" 0>
  <GND * 1 570 140 0 0 0 2>
  <Vdc V4 1 570 330 -66 -26 1 1 "3.3 V" 1>
  <GND * 1 570 360 0 0 0 0>
  <Lib OP5 1 930 200 -20 -85 1 0 "OpAmps" 0 "tl071(TI)" 0>
  <GND * 1 970 160 0 0 0 2>
  <Vdc V5 1 970 350 -66 -26 1 1 "3.3 V" 1>
  <GND * 1 970 380 0 0 0 0>
</Components>
<Wires>
  <-70 150 -50 150 "" 0 0 0 "">
  <-70 150 -70 200 "" 0 0 0 "">
  <10 140 10 150 "" 0 0 0 "">
  <10 140 90 140 "" 0 0 0 "">
  <90 180 90 220 "" 0 0 0 "">
  <90 220 160 220 "" 0 0 0 "">
  <160 160 160 220 "" 0 0 0 "">
  <230 160 270 160 "Vdac" 230 100 18 "">
  <160 160 170 160 "" 0 0 0 "">
  <410 160 410 180 "" 0 0 0 "">
  <330 160 350 160 "" 0 0 0 "">
  <410 240 410 280 "" 0 0 0 "">
  <820 180 820 200 "" 0 0 0 "">
  <820 180 880 180 "" 0 0 0 "">
  <820 260 820 300 "" 0 0 0 "">
  <740 180 760 180 "" 0 0 0 "">
  <-70 260 -70 290 "" 0 0 0 "">
  <620 180 660 180 "" 0 0 0 "">
  <660 180 680 180 "" 0 0 0 "">
  <660 50 660 180 "" 0 0 0 "">
  <510 50 660 50 "filtro1" 590 50 145 "">
  <350 50 350 160 "" 0 0 0 "">
  <350 50 450 50 "" 0 0 0 "">
  <620 180 620 280 "" 0 0 0 "">
  <620 280 620 310 "" 0 0 0 "">
  <760 20 760 180 "" 0 0 0 "">
  <760 20 860 20 "" 0 0 0 "">
  <1080 200 1160 200 "" 0 0 0 "">
  <1080 20 1080 200 "" 0 0 0 "">
  <920 20 1080 20 "SigGen" 1450 20 160 "">
  <1020 200 1080 200 "" 0 0 0 "">
  <410 140 410 160 "" 0 0 0 "">
  <410 140 490 140 "" 0 0 0 "">
  <490 280 620 280 "" 0 0 0 "">
  <490 220 490 280 "" 0 0 0 "">
  <570 220 570 300 "" 0 0 0 "">
  <970 240 970 320 "" 0 0 0 "">
  <890 240 890 290 "" 0 0 0 "">
  <890 290 1080 290 "" 0 0 0 "">
  <1080 200 1080 290 "" 0 0 0 "">
  <880 160 880 180 "" 0 0 0 "">
  <880 160 890 160 "" 0 0 0 "">
  <1280 200 1280 200 "out" 1310 170 0 "">
</Wires>
<Diagrams>
</Diagrams>
<Paintings>
</Paintings>
