<Qucs Schematic 0.0.18>
<Properties>
  <View=0,0,800,800,1,0,0>
  <Grid=10,10,1>
  <DataSet=saidadobagulho.dat>
  <DataDisplay=saidadobagulho.dpl>
  <OpenDisplay=1>
  <Script=saidadobagulho.m>
  <RunScript=0>
  <showFrame=0>
  <FrameText0=Título>
  <FrameText1=Desenhado por:>
  <FrameText2=Data:>
  <FrameText3=Revisão:>
</Properties>
<Symbol>
</Symbol>
<Components>
</Components>
<Wires>
</Wires>
<Diagrams>
</Diagrams>
<Paintings>
</Paintings>
