<Qucs Schematic 0.0.18>
<Properties>
  <View=0,0,905,800,1,0,0>
  <Grid=10,10,1>
  <DataSet=testechave.dat>
  <DataDisplay=testechave.dpl>
  <OpenDisplay=1>
  <Script=testechave.m>
  <RunScript=0>
  <showFrame=0>
  <FrameText0=Título>
  <FrameText1=Desenhado por:>
  <FrameText2=Data:>
  <FrameText3=Revisão:>
</Properties>
<Symbol>
  <.ID -20 -16 SUB>
  <Line -20 20 40 0 #000080 2 1>
  <Line 20 20 0 -40 #000080 2 1>
  <Line -20 -20 40 0 #000080 2 1>
  <Line -20 20 0 -40 #000080 2 1>
</Symbol>
<Components>
  <C C1 1 400 290 17 -26 0 1 "1 pF" 1 "" 0 "neutral" 0>
  <GND * 1 400 320 0 0 0 0>
  <Vdc V3 1 300 90 18 -26 0 1 "3.3 V" 1>
  <GND * 1 300 120 0 0 0 0>
  <Vdc V1 1 130 310 18 -26 0 1 "1.65" 1>
  <GND * 1 130 340 0 0 0 0>
  <.DC DC1 1 660 260 0 39 0 0 "26.85" 0 "0.001" 0 "1 pA" 0 "1 uV" 0 "no" 0 "150" 0 "no" 0 "none" 0 "CroutLU" 0>
  <Vac V2 1 130 250 18 -26 0 1 "1.65" 1 "1 MHz" 0 "0" 0 "0" 0>
  <GND * 1 700 200 0 0 0 0>
  <R R4 1 700 170 15 -26 0 1 "100k" 1 "26.85" 0 "0.0" 0 "0.0" 0 "26.85" 0 "US" 0>
  <R R2 1 400 140 15 -26 0 1 "500k Ohm" 1 "26.85" 0 "0.0" 0 "0.0" 0 "26.85" 0 "US" 0>
  <R R1 1 270 210 -26 15 0 0 "500k Ohm" 1 "26.85" 0 "0.0" 0 "0.0" 0 "26.85" 0 "US" 0>
  <Vdc V4 1 810 170 18 -26 0 1 "Vmos" 1>
  <.TR TR1 1 690 350 0 63 0 0 "lin" 1 "0" 1 "2 us" 1 "101" 0 "Trapezoidal" 0 "2" 0 "1 ns" 0 "1e-16" 0 "150" 0 "0.001" 0 "1 pA" 0 "1 uV" 0 "26.85" 0 "1e-3" 0 "1e-6" 0 "1" 0 "CroutLU" 0 "no" 0 "yes" 0 "0" 0>
  <GND * 1 810 200 0 0 0 0>
  <R R5 1 750 140 -26 -47 1 0 "50 Ohm" 1 "26.85" 0 "0.0" 0 "0.0" 0 "26.85" 0 "US" 0>
  <.SW SW1 1 480 410 0 63 0 0 "TR1" 1 "list" 1 "Vmos" 1 "5 Ohm" 0 "50 Ohm" 0 "[0; 3.3]" 1>
  <R R3 1 630 80 15 -26 0 1 "500k Ohm" 1 "26.85" 0 "0.0" 0 "0.0" 0 "26.85" 0 "US" 0>
  <_BJT T1 1 630 140 -65 -26 1 2 "npn" 1 "1e-16" 1 "1" 1 "1" 0 "0" 0 "0" 0 "0" 1 "0" 0 "0" 0 "1.5" 0 "0" 0 "2" 0 "100" 1 "1" 0 "0" 0 "0" 0 "0" 0 "0" 0 "0" 0 "0" 0 "0.75" 0 "0.33" 0 "0" 0 "0.75" 0 "0.33" 0 "1.0" 0 "0" 0 "0.75" 0 "0" 0 "0.5" 0 "0.0" 0 "0.0" 0 "0.0" 0 "0.0" 0 "0.0" 0 "26.85" 0 "0.0" 0 "1.0" 0 "1.0" 0 "0.0" 0 "1.0" 0 "1.0" 0 "0.0" 0 "0.0" 0 "3.0" 0 "1.11" 0 "26.85" 0 "1.0" 0>
</Components>
<Wires>
  <400 170 400 210 "" 0 0 0 "">
  <300 210 400 210 "" 0 0 0 "">
  <400 210 400 260 "" 0 0 0 "">
  <400 50 400 110 "" 0 0 0 "">
  <400 50 630 50 "" 0 0 0 "">
  <400 210 630 210 "Vout" 510 180 81 "">
  <630 170 630 210 "" 0 0 0 "">
  <300 50 300 60 "" 0 0 0 "">
  <300 50 400 50 "" 0 0 0 "">
  <130 210 240 210 "" 0 0 0 "">
  <130 210 130 220 "" 0 0 0 "">
  <660 140 700 140 "" 0 0 0 "">
  <780 140 810 140 "" 0 0 0 "">
  <700 140 720 140 "" 0 0 0 "">
</Wires>
<Diagrams>
</Diagrams>
<Paintings>
</Paintings>
