<Qucs Schematic 0.0.18>
<Properties>
  <View=-280,-59,1001,659,0.826446,37,0>
  <Grid=10,10,1>
  <DataSet=ue.dat>
  <DataDisplay=ue.dpl>
  <OpenDisplay=1>
  <Script=ue.m>
  <RunScript=0>
  <showFrame=0>
  <FrameText0=Título>
  <FrameText1=Desenhado por:>
  <FrameText2=Data:>
  <FrameText3=Revisão:>
</Properties>
<Symbol>
</Symbol>
<Components>
  <.AC AC1 1 390 520 0 40 0 0 "log" 1 "1 Hz" 1 "100 MHz" 1 "300" 1 "no" 0>
  <.DC DC1 1 640 500 0 40 0 0 "26.85" 0 "0.001" 0 "1 pA" 0 "1 uV" 0 "no" 0 "150" 0 "no" 0 "none" 0 "CroutLU" 0>
  <GND * 1 640 90 0 0 0 0>
  <.SW SW1 0 110 490 0 65 0 0 "AC1" 1 "list" 1 "RESISTANCE" 1 "0" 0 "237.5" 0 "[1M]" 1>
  <Eqn Eqn1 1 220 60 -24 15 0 0 "H=2*(Vout.v/Vin.v)" 1 "Hdc=(Vout.V/Vin.V)" 1 "yes" 0>
  <C C3 1 420 150 -26 -49 1 0 "80fF" 1 "" 0 "neutral" 0>
  <C C4 1 590 10 -26 -49 1 0 "80fF" 1 "" 0 "neutral" 0>
  <R R3 1 590 80 -26 -47 1 0 "3k" 1 "26.85" 0 "0.0" 0 "0.0" 0 "26.85" 0 "US" 0>
  <R R5 1 530 160 15 -26 0 1 "33k" 1 "26.85" 0 "0.0" 0 "0.0" 0 "26.85" 0 "US" 0>
  <GND * 1 -40 360 0 0 0 0>
  <Vac V1 1 -40 270 -66 -26 1 1 ".1 V" 1 "1 GHz" 0 "0" 0 "0" 0>
  <Diode D_1N4148_2 1 180 270 -80 -26 0 3 "222p" 1 "1.65" 1 "4p" 0 "0.333" 0 "0.7" 0 "0.5" 0 "0" 0 "0" 0 "2" 0 "68.6m" 0 "5.76n" 0 "0" 0 "0" 0 "1" 0 "1" 0 "75" 0 "1u" 0 "26.85" 0 "3.0" 0 "1.11" 0 "0.0" 0 "0.0" 0 "0.0" 0 "0.0" 0 "0.0" 0 "0.0" 0 "26.85" 0 "1.0" 0 "normal" 0>
  <Diode D_1N4148_1 1 230 270 6 -22 0 1 "222p" 1 "1.65" 1 "4p" 0 "0.333" 0 "0.7" 0 "0.5" 0 "0" 0 "0" 0 "2" 0 "68.6m" 0 "5.76n" 0 "0" 0 "0" 0 "1" 0 "1" 0 "75" 0 "1u" 0 "26.85" 0 "3.0" 0 "1.11" 0 "0.0" 0 "0.0" 0 "0.0" 0 "0.0" 0 "0.0" 0 "0.0" 0 "26.85" 0 "1.0" 0 "normal" 0>
  <GND * 1 330 330 0 0 0 0>
  <GND * 1 180 300 0 0 0 0>
  <GND * 1 230 300 0 0 0 0>
  <Vdc V2 1 670 350 18 -26 0 1 "3.3 V" 1>
  <R R7 1 670 290 15 -26 0 1 "5000 Ohm" 1 "26.85" 0 "0.0" 0 "0.0" 0 "26.85" 0 "US" 0>
  <R R6 1 610 260 -26 15 0 0 "5000 Ohm" 1 "26.85" 0 "0.0" 0 "0.0" 0 "26.85" 0 "US" 0>
  <GND * 1 670 380 0 0 0 0>
  <GND * 1 820 380 0 0 0 0>
  <C C8 1 820 310 -63 -26 1 1 "22pF" 1 "" 0 "neutral" 0>
  <C C5 1 660 160 -59 -26 1 1 "80fF" 1 "" 0 "neutral" 0>
  <mod_amp OP1 1 380 260 44 -34 1 0 "10e6" 0 "120.0" 0 "100e6" 0 "375" 0 "6e-12" 0 "2e6" 0 ".2e-12" 0 ".2e-12" 0 "100e-6" 0 "120.0" 0 "200.0" 0 "25e6" 0 "25e6" 0 "5" 0 "-5" 1 "35e-3" 0 "50" 0>
  <C C6 1 420 10 -26 -49 1 0 "22p" 1 "" 0 "neutral" 0>
  <R R4 1 410 80 -26 -47 1 0 "5.6k" 1 "26.85" 0 "0.0" 0 "0.0" 0 "26.85" 0 "US" 0>
  <R R1 1 30 240 -26 15 0 0 "10M Ohm" 1 "26.85" 0 "0.0" 0 "0.0" 0 "26.85" 0 "US" 0>
  <C C1 1 30 210 -26 -49 1 0 "80fF" 1 "" 0 "neutral" 0>
</Components>
<Wires>
  <480 80 530 80 "" 0 0 0 "">
  <620 80 640 80 "" 0 0 0 "">
  <640 80 640 90 "" 0 0 0 "">
  <440 80 480 80 "" 0 0 0 "">
  <350 80 350 150 "" 0 0 0 "">
  <350 80 380 80 "" 0 0 0 "">
  <530 80 560 80 "" 0 0 0 "">
  <530 80 530 130 "" 0 0 0 "">
  <530 190 530 260 "" 0 0 0 "">
  <420 260 530 260 "" 0 0 0 "">
  <350 150 350 240 "" 0 0 0 "">
  <480 80 480 150 "" 0 0 0 "">
  <450 150 480 150 "" 0 0 0 "">
  <350 150 390 150 "" 0 0 0 "">
  <530 10 530 80 "" 0 0 0 "">
  <530 10 560 10 "" 0 0 0 "">
  <620 10 640 10 "" 0 0 0 "">
  <640 10 640 80 "" 0 0 0 "">
  <-40 300 -40 360 "" 0 0 0 "">
  <60 240 180 240 "" 0 0 0 "">
  <-40 240 0 240 "Vin" -120 160 10 "">
  <60 210 60 240 "" 0 0 0 "">
  <0 210 0 240 "" 0 0 0 "">
  <180 240 230 240 "" 0 0 0 "">
  <230 240 350 240 "" 0 0 0 "">
  <330 280 350 280 "" 0 0 0 "">
  <330 280 330 330 "" 0 0 0 "">
  <530 260 580 260 "" 0 0 0 "">
  <640 260 670 260 "" 0 0 0 "">
  <670 260 820 260 "Vout" 840 210 100 "">
  <820 260 870 260 "" 0 0 0 "">
  <820 260 820 280 "" 0 0 0 "">
  <820 340 820 380 "" 0 0 0 "">
  <530 130 660 130 "" 0 0 0 "">
  <530 190 660 190 "" 0 0 0 "">
  <480 10 480 80 "" 0 0 0 "">
  <450 10 480 10 "" 0 0 0 "">
  <350 10 350 80 "" 0 0 0 "">
  <350 10 390 10 "" 0 0 0 "">
</Wires>
<Diagrams>
</Diagrams>
<Paintings>
</Paintings>
