<Qucs Schematic 0.0.18>
<Properties>
  <View=-80,-211,952,579,0.802797,0,0>
  <Grid=10,10,1>
  <DataSet=xunxoMarlio.dat>
  <DataDisplay=xunxoMarlio.dpl>
  <OpenDisplay=1>
  <Script=xunxoMarlio.m>
  <RunScript=0>
  <showFrame=0>
  <FrameText0=Título>
  <FrameText1=Desenhado por:>
  <FrameText2=Data:>
  <FrameText3=Revisão:>
</Properties>
<Symbol>
</Symbol>
<Components>
  <.AC AC1 1 470 430 0 39 0 0 "log" 1 "1 Hz" 1 "10 MHz" 1 "300" 1 "no" 0>
  <.DC DC1 1 720 410 0 39 0 0 "26.85" 0 "0.001" 0 "1 pA" 0 "1 uV" 0 "no" 0 "150" 0 "no" 0 "none" 0 "CroutLU" 0>
  <R R1 1 350 150 -26 15 0 0 "1M Ohm" 1 "26.85" 0 "0.0" 0 "0.0" 0 "26.85" 0 "US" 0>
  <C C1 1 350 110 -26 -49 1 0 "80fF" 1 "" 0 "neutral" 0>
  <R R3 1 650 170 -26 15 0 0 "5000 Ohm" 1 "26.85" 0 "0.0" 0 "0.0" 0 "26.85" 0 "US" 0>
  <C C3 0 740 220 17 -26 0 1 "100 pF" 1 "" 0 "neutral" 0>
  <GND * 1 230 270 0 0 0 0>
  <Vac V3 1 230 180 -66 -26 1 1 ".01 V" 1 "1 GHz" 0 "0" 0 "0" 0>
  <Eqn Eqn1 1 300 -30 -24 15 0 0 "H=Vout.v/Vin.v" 1 "yes" 0>
  <R R5 1 660 -70 -26 -47 1 0 "RESISTANCE" 1 "26.85" 0 "0.0" 0 "0.0" 0 "26.85" 0 "US" 0>
  <R R2 1 490 -10 -26 -47 1 0 "82k Ohm" 1 "26.85" 0 "0.0" 0 "0.0" 0 "26.85" 0 "US" 0>
  <R R4 1 600 70 15 -26 0 1 "18k Ohm" 1 "26.85" 0 "0.0" 0 "0.0" 0 "26.85" 0 "US" 0>
  <.SW SW1 1 190 400 0 63 0 0 "AC1" 1 "list" 1 "RESISTANCE" 1 "0" 0 "237.5" 0 "[150;1800;300;200000]" 1>
  <GND * 1 710 -60 0 0 0 0>
  <GND * 1 740 250 0 0 0 0>
  <GND * 1 410 240 0 0 0 0>
  <mod_amp OP1 1 460 170 44 -34 1 0 "10e6" 0 "120.0" 0 "100e6" 0 "30" 0 "6e-12" 0 "2e6" 0 ".2e-12" 0 ".2e-12" 0 "100e-6" 0 "120.0" 0 "200.0" 0 "25e6" 0 "25e6" 0 "5" 0 "-5" 1 "35e-3" 0 "50" 0>
  <C C2 0 500 70 -26 17 0 0 "0.47 pF" 1 "" 0 "neutral" 0>
</Components>
<Wires>
  <380 150 430 150 "" 0 0 0 "">
  <500 170 600 170 "" 0 0 0 "">
  <410 190 410 240 "" 0 0 0 "">
  <410 190 430 190 "" 0 0 0 "">
  <380 110 380 150 "" 0 0 0 "">
  <430 -10 430 70 "" 0 0 0 "">
  <520 -10 560 -10 "" 0 0 0 "">
  <430 -10 460 -10 "" 0 0 0 "">
  <430 70 430 150 "" 0 0 0 "">
  <430 70 470 70 "" 0 0 0 "">
  <320 110 320 150 "" 0 0 0 "">
  <530 70 560 70 "" 0 0 0 "">
  <560 -10 560 70 "" 0 0 0 "">
  <680 170 740 170 "" 0 0 0 "">
  <740 170 850 170 "" 0 0 0 "">
  <740 170 740 190 "" 0 0 0 "">
  <230 150 320 150 "Vin" -40 70 10 "">
  <230 210 230 270 "" 0 0 0 "">
  <600 170 620 170 "" 0 0 0 "">
  <600 100 600 170 "" 0 0 0 "">
  <560 -10 600 -10 "" 0 0 0 "">
  <600 -10 600 40 "" 0 0 0 "">
  <600 -70 600 -10 "" 0 0 0 "">
  <600 -70 630 -70 "" 0 0 0 "">
  <690 -70 710 -70 "" 0 0 0 "">
  <710 -70 710 -60 "" 0 0 0 "">
  <850 170 850 170 "Vout" 880 140 0 "">
</Wires>
<Diagrams>
</Diagrams>
<Paintings>
</Paintings>
