<Qucs Schematic 0.0.18>
<Properties>
  <View=-280,-48,872,659,1,131,0>
  <Grid=10,10,1>
  <DataSet=xunxomarliov2.dat>
  <DataDisplay=xunxomarliov2.dpl>
  <OpenDisplay=1>
  <Script=xunxomarliov2.m>
  <RunScript=0>
  <showFrame=0>
  <FrameText0=Título>
  <FrameText1=Desenhado por:>
  <FrameText2=Data:>
  <FrameText3=Revisão:>
</Properties>
<Symbol>
</Symbol>
<Components>
  <.AC AC1 1 390 520 0 39 0 0 "log" 1 "1 Hz" 1 "10 MHz" 1 "300" 1 "no" 0>
  <.DC DC1 1 640 500 0 39 0 0 "26.85" 0 "0.001" 0 "1 pA" 0 "1 uV" 0 "no" 0 "150" 0 "no" 0 "none" 0 "CroutLU" 0>
  <R R1 1 270 240 -26 15 0 0 "1M Ohm" 1 "26.85" 0 "0.0" 0 "0.0" 0 "26.85" 0 "US" 0>
  <C C1 0 270 200 -26 -49 1 0 "80fF" 1 "" 0 "neutral" 0>
  <R R2 2 570 260 -26 15 0 0 "5000 Ohm" 1 "26.85" 0 "0.0" 0 "0.0" 0 "26.85" 0 "US" 0>
  <C C2 0 660 310 17 -26 0 1 "100 pF" 1 "" 0 "neutral" 0>
  <GND * 1 150 360 0 0 0 0>
  <Vac V1 1 150 270 -66 -26 1 1 ".1 V" 1 "1 GHz" 0 "0" 0 "0" 0>
  <GND * 1 660 340 0 0 0 0>
  <GND * 1 330 330 0 0 0 0>
  <C C3 0 420 160 -26 17 0 0 "0.47 pF" 1 "" 0 "neutral" 0>
  <GND * 1 640 90 0 0 0 0>
  <.SW SW1 1 110 490 0 63 0 0 "AC1" 1 "list" 1 "RESISTANCE" 1 "0" 0 "237.5" 0 "[1M]" 1>
  <Eqn Eqn1 1 220 60 -24 15 0 0 "H=(Vout.v/Vin.v)" 1 "Hdc=(Vout.V/Vin.V)" 1 "yes" 0>
  <R R4 1 410 80 -26 -47 1 0 "RESISTANCE" 1 "26.85" 0 "0.0" 0 "0.0" 0 "26.85" 0 "US" 0>
  <R R5 1 530 160 15 -26 0 1 "100k" 1 "26.85" 0 "0.0" 0 "0.0" 0 "26.85" 0 "US" 0>
  <R R3 1 590 80 -26 -47 1 0 "10k" 1 "26.85" 0 "0.0" 0 "0.0" 0 "26.85" 0 "US" 0>
  <mod_amp OP1 0 0 70 44 -34 1 0 "10e6" 0 "120.0" 0 "100e6" 0 "30" 0 "6e-12" 0 "2e6" 0 ".2e-12" 0 ".2e-12" 0 "100e-6" 0 "120.0" 0 "200.0" 0 "25e6" 0 "25e6" 0 "5" 0 "-5" 1 "35e-3" 0 "50" 0>
  <OpAmp OP2 1 380 260 -26 -74 1 0 "1e6" 1 "15 V" 0>
</Components>
<Wires>
  <300 240 350 240 "" 0 0 0 "">
  <300 200 300 240 "" 0 0 0 "">
  <350 160 350 240 "" 0 0 0 "">
  <350 160 390 160 "" 0 0 0 "">
  <240 200 240 240 "" 0 0 0 "">
  <450 160 480 160 "" 0 0 0 "">
  <480 80 480 160 "" 0 0 0 "">
  <600 260 660 260 "" 0 0 0 "">
  <660 260 770 260 "" 0 0 0 "">
  <660 260 660 280 "" 0 0 0 "">
  <150 240 240 240 "Vin" -120 160 10 "">
  <150 300 150 360 "" 0 0 0 "">
  <480 80 530 80 "" 0 0 0 "">
  <620 80 640 80 "" 0 0 0 "">
  <640 80 640 90 "" 0 0 0 "">
  <440 80 480 80 "" 0 0 0 "">
  <350 80 350 160 "" 0 0 0 "">
  <350 80 380 80 "" 0 0 0 "">
  <530 80 560 80 "" 0 0 0 "">
  <530 260 540 260 "" 0 0 0 "">
  <530 80 530 130 "" 0 0 0 "">
  <530 190 530 260 "" 0 0 0 "">
  <420 260 530 260 "" 0 0 0 "">
  <330 280 330 330 "" 0 0 0 "">
  <330 280 350 280 "" 0 0 0 "">
  <770 260 770 260 "Vout" 800 230 0 "">
</Wires>
<Diagrams>
</Diagrams>
<Paintings>
</Paintings>
